{
  "project_info": {
    "project_number": "228222983194",
    "firebase_url": "https://rutapps-183a3.firebaseio.com",
    "project_id": "rutapps-183a3",
    "storage_bucket": "rutapps-183a3.appspot.com"
  },
  "client": [
    {
      "client_info": {
        "mobilesdk_app_id": "1:228222983194:android:0d69e533f7c58270",
        "android_client_info": {
          "package_name": "co.hidesoft.rutapps"
        }
      },
      "oauth_client": [
        {
          "client_id": "228222983194-ec39ek1dp1868uvs9jfd0ega18kfcesq.apps.googleusercontent.com",
          "client_type": 1,
          "android_info": {
            "package_name": "co.hidesoft.rutapps",
            "certificate_hash": "035112a2aea78fe41ae2c23d927510b6ab618c41"
          }
        },
        {
          "client_id": "228222983194-du11tccc1iffdemglv2navotpdqh9397.apps.googleusercontent.com",
          "client_type": 1,
          "android_info": {
            "package_name": "co.hidesoft.rutapps",
            "certificate_hash": "99b9d6f5d572b52a39ea816b817b909698738780"
          }
        },
        {
          "client_id": "228222983194-rmes5s464tieoksrvj65hoosgfoiui21.apps.googleusercontent.com",
          "client_type": 3
        }
      ],
      "api_key": [
        {
          "current_key": "AIzaSyC9KLbtHdz57YnrJI-FAEnXgi_3CRpfNrQ"
        }
      ],
      "services": {
        "analytics_service": {
          "status": 1
        },
        "appinvite_service": {
          "status": 2,
          "other_platform_oauth_client": [
            {
              "client_id": "228222983194-rmes5s464tieoksrvj65hoosgfoiui21.apps.googleusercontent.com",
              "client_type": 3
            },
            {
              "client_id": "228222983194-o0tgm5sj8cf7vd18johs400d2deobh08.apps.googleusercontent.com",
              "client_type": 2,
              "ios_info": {
                "bundle_id": "com.devops.rutappsusuario"
              }
            }
          ]
        },
        "ads_service": {
          "status": 2
        }
      }
    },
    {
      "client_info": {
        "mobilesdk_app_id": "1:228222983194:android:92601cc4e0fcf83d",
        "android_client_info": {
          "package_name": "co.hidesoft.rutappsusuariofinal"
        }
      },
      "oauth_client": [
        {
          "client_id": "228222983194-b2dk37o5lvit7lkk8fvgb13aefvbfqsb.apps.googleusercontent.com",
          "client_type": 1,
          "android_info": {
            "package_name": "co.hidesoft.rutappsusuariofinal",
            "certificate_hash": "71267434370d470db9dad1ea330f73eb4964600a"
          }
        },
        {
          "client_id": "228222983194-pqh38rdima1q089vteh04urvtosbkvcv.apps.googleusercontent.com",
          "client_type": 1,
          "android_info": {
            "package_name": "co.hidesoft.rutappsusuariofinal",
            "certificate_hash": "3f8c303cef012b85bee0a6be81f345cb3950e080"
          }
        },
        {
          "client_id": "228222983194-rmes5s464tieoksrvj65hoosgfoiui21.apps.googleusercontent.com",
          "client_type": 3
        }
      ],
      "api_key": [
        {
          "current_key": "AIzaSyC9KLbtHdz57YnrJI-FAEnXgi_3CRpfNrQ"
        }
      ],
      "services": {
        "analytics_service": {
          "status": 1
        },
        "appinvite_service": {
          "status": 2,
          "other_platform_oauth_client": [
            {
              "client_id": "228222983194-rmes5s464tieoksrvj65hoosgfoiui21.apps.googleusercontent.com",
              "client_type": 3
            },
            {
              "client_id": "228222983194-o0tgm5sj8cf7vd18johs400d2deobh08.apps.googleusercontent.com",
              "client_type": 2,
              "ios_info": {
                "bundle_id": "com.devops.rutappsusuario"
              }
            }
          ]
        },
        "ads_service": {
          "status": 2
        }
      }
    },
    {
      "client_info": {
        "mobilesdk_app_id": "1:228222983194:android:c3d8fabf0028e664",
        "android_client_info": {
          "package_name": "com.example.rutappsusuario"
        }
      },
      "oauth_client": [
        {
          "client_id": "228222983194-orbkh22lm0oamb5vpmvk92ih97fi8n10.apps.googleusercontent.com",
          "client_type": 1,
          "android_info": {
            "package_name": "com.example.rutappsusuario",
            "certificate_hash": "5398bac3b89a405ee41ac3e23e13d80903602a72"
          }
        },
        {
          "client_id": "228222983194-rmes5s464tieoksrvj65hoosgfoiui21.apps.googleusercontent.com",
          "client_type": 3
        }
      ],
      "api_key": [
        {
          "current_key": "AIzaSyC9KLbtHdz57YnrJI-FAEnXgi_3CRpfNrQ"
        }
      ],
      "services": {
        "analytics_service": {
          "status": 1
        },
        "appinvite_service": {
          "status": 2,
          "other_platform_oauth_client": [
            {
              "client_id": "228222983194-rmes5s464tieoksrvj65hoosgfoiui21.apps.googleusercontent.com",
              "client_type": 3
            },
            {
              "client_id": "228222983194-o0tgm5sj8cf7vd18johs400d2deobh08.apps.googleusercontent.com",
              "client_type": 2,
              "ios_info": {
                "bundle_id": "com.devops.rutappsusuario"
              }
            }
          ]
        },
        "ads_service": {
          "status": 2
        }
      }
    }
  ],
  "configuration_version": "1"
}